Nowcasting — nowcast • diseasenowcasting
…
#> $data$stan_data$mu_0_mean_hyperprior
#> [1] 1
#> 
#> $data$stan_data$nu_0_mean_hyperprior
#> [1] 1
#> 
#> $data$stan_data$mu_0_sd_hyperprior
#> [1] 1
#> 
#> $data$stan_data$nu_0_sd_hyperprior
#> [1] 1
#> 
#> 
#> $data$preprocessed_data
#> # A tibble: 52 × 5
#>    onset_date .delay report_date     n .tval
#>    <date>      <dbl> <date>      <dbl> <dbl>
#>  1 2024-09-10      0 2024-09-10      1     1
#>  2 2024-09-10      1 2024-09-11      0     1
#>  3 2024-09-10      2 2024-09-12      0     1
#>  4 2024-09-10      3 2024-09-13      0     1
#>  5 2024-09-10      4 2024-09-14      1     1
#>  6 2024-09-10      5 2024-09-15      1     1
#>  7 2024-09-10      6 2024-09-16      1     1
#>  8 2024-09-10      7 2024-09-17      2     1
#>  9 2024-09-11      0 2024-09-11      0     2
#> 10 2024-09-11      1 2024-09-12      0     2
#> # ℹ 42 more rows
…
