Preprocess data.frame for generating a nowcast — preprocess_for_nowcast • diseasenowcasting
…
    A `data.frame` with all possible counts for all delay-onset combinations.
The new column with the counts is named `n`. Additional columns `.tval` and `.delay`
are added where `.tval` codifies the dates as numbers (starting at 0) and delay
codifies the difference between onset and report.

    Examples

data(denguedat)

# Get counts by onset date and report week consider all possible delays
preprocess_for_nowcast(denguedat, "onset_week", "report_week",
  units = "weeks", now = as.Date("1990-03-05")
)
#> ℹ Assuming data is linelist-data where each observation is a test. If you are working with count-data set `data_type = "count"`
#> # A tibble: 55 × 5
#>        n .tval .delay onset_week report_week
#>    <int> <dbl>  <dbl> <date>     <date>     
#>  1     3     1      0 1990-01-01 1990-01-01 
#>  2    24     1      1 1990-01-01 1990-01-08 
#>  3    23     1      2 1990-01-01 1990-01-15 
#>  4     8     1      3 1990-01-01 1990-01-22 
#>  5     1     1      4 1990-01-01 1990-01-29 
#>  6     0     1      5 1990-01-01 1990-02-05 
#>  7     1     1      6 1990-01-01 1990-02-12 
#>  8     0     1      7 1990-01-01 1990-02-19 
#>  9     0     1      8 1990-01-01 1990-02-26 
#> 10     1     1      9 1990-01-01 1990-03-05 
#> # ℹ 45 more rows
…
