Simulate a process — simulate_process_for_testing • diseasenowcasting
…
r_param_1
Numeric. First parameter for the dispersion prior if negative binomial. Default is 0.0.

r_param_2
Numeric. Second parameter for the dispersion prior if negative binomial. Default is 1.0.

    Value

    A tibble with simulated state-space process results, including the onset and
report dates, strata, delays, and the number of observed cases per time step.

    Examples

simulate_process_for_testing(num_steps = 20, num_delays = 5, num_strata = 3)
#> # A tibble: 300 × 6
#>    .strata .delay .tval     n onset_date report_date
#>      <int>  <int> <dbl> <dbl> <date>     <date>     
#>  1       1      1     1    56 2024-08-29 2024-08-29 
#>  2       1      1     2    51 2024-08-30 2024-08-30 
#>  3       1      1     3   113 2024-08-31 2024-08-31 
#>  4       1      1     4   228 2024-09-01 2024-09-01 
#>  5       1      1     5    51 2024-09-02 2024-09-02 
#>  6       1      1     6    69 2024-09-03 2024-09-03 
#>  7       1      1     7   354 2024-09-04 2024-09-04 
#>  8       1      1     8    28 2024-09-05 2024-09-05 
#>  9       1      1     9   131 2024-09-06 2024-09-06 
#> 10       1      1    10   112 2024-09-07 2024-09-07 
#> # ℹ 290 more rows
…
