Simulate a process — simulate_disease • diseasenowcasting
…
    Value

    A tibble with simulated state-space process results, including the onset and
report dates, strata, delays, and the number of observed cases per time step.

    Examples

simulate_process_for_testing(num_steps = 20, num_delays = 5, num_strata = 3)
#> ! This function will disappear in future versions please call `simulate_disease`
#> ℹ Computing a nowcast for 2024-09-16 per "days"
#> ℹ Assuming data is count-data where counts are in column `n`. To change this set `data_type = "linelist"`
#> # A tibble: 300 × 4
#>        n .strata onset_date report_date
#>    <dbl> <chr>   <date>     <date>     
#>  1   100 s1      2024-08-29 2024-08-29 
#>  2   100 s1      2024-08-30 2024-08-30 
#>  3   100 s1      2024-08-31 2024-08-31 
#>  4   100 s1      2024-09-01 2024-09-01 
#>  5   100 s1      2024-09-02 2024-09-02 
#>  6   100 s1      2024-09-03 2024-09-03 
#>  7   100 s1      2024-09-04 2024-09-04 
#>  8   100 s1      2024-09-05 2024-09-05 
#>  9   100 s1      2024-09-06 2024-09-06 
#> 10   100 s1      2024-09-07 2024-09-07 
#> # ℹ 290 more rows
…
