Introduction to diseasenowcasting • diseasenowcasting
…
And get the predictions with the summary function

summary(ncast)
#> # A tibble: 40 × 7
#>    onset_week  mean    sd median  `5%` `95%` Strata_unified
#>    <date>     <dbl> <dbl>  <dbl> <dbl> <dbl> <chr>         
#>  1 1990-01-01    61     0     61    61    61 No strata     
#>  2 1990-01-08    50     0     50    50    50 No strata     
#>  3 1990-01-15    44     0     44    44    44 No strata     
#>  4 1990-01-22    46     0     46    46    46 No strata     
#>  5 1990-01-29    39     0     39    39    39 No strata     
#>  6 1990-02-05    34     0     34    34    34 No strata     
#>  7 1990-02-12    24     0     24    24    24 No strata     
#>  8 1990-02-19    17     0     17    17    17 No strata     
#>  9 1990-02-26    17     0     17    17    17 No strata     
#> 10 1990-03-05    16     0     16    16    16 No strata     
#> # ℹ 30 more rows
…
#creating a new nowcast using a Poisson distribution
ncast2 <- nowcast(denguedat_fraction, true_date = "onset_week", 
                 report_date = "report_week",
                method = "variational", dist = "Poisson") 
btest2 <- backtest(ncast2, start_date = as.Date("1990/05/01"), end_date = as.Date("1990/07/31"), refresh = 0, model_name='model_Poisson') 

comparison_mtr <- backtest_metrics(btest, btest2)

generate a summary of the comparison with summary and
generate a plot with plot

summary(comparison_mtr)
#> # A tibble: 22 × 8
#>    model    Strata_unified horizon metric                 avg    sd n_now     se
#>    <chr>    <chr>          <chr>   <chr>                <dbl> <dbl> <int>  <dbl>
#>  1 model_NB No strata      0       ae_median          11.8    3.30     13 0.914 
#>  2 model_NB No strata      0       ape                 2.56   1.56     13 0.431 
#>  3 model_NB No strata      0       bias                0.927  0.136    13 0.0378
#>  4 model_NB No strata      0       dispersion          1.54   0.111    13 0.0309
#>  5 model_NB No strata      0       interval_coverage…  0.0769 0.277    13 0.0769
#>  6 model_NB No strata      0       interval_coverage…  0.385  0.506    13 0.140 
#>  7 model_NB No strata      0       mae                13.4    3.45     13 0.958 
#>  8 model_NB No strata      0       overprediction      4.30   1.75     13 0.484 
#>  9 model_NB No strata      0       rmse               13.4    3.45     13 0.958 
#> 10 model_NB No strata      0       underprediction     0      0        13 0     
#> # ℹ 12 more rows
…
