Introduction to diseasenowcasting • diseasenowcasting
…
And get the predictions with the summary function

summary(ncast)
#> # A tibble: 40 × 7
#>    onset_week  mean    sd median  `5%` `95%` Strata_unified
#>    <date>     <dbl> <dbl>  <dbl> <dbl> <dbl> <chr>         
#>  1 1990-01-01    61     0     61    61    61 No strata     
#>  2 1990-01-08    50     0     50    50    50 No strata     
#>  3 1990-01-15    44     0     44    44    44 No strata     
#>  4 1990-01-22    46     0     46    46    46 No strata     
#>  5 1990-01-29    39     0     39    39    39 No strata     
#>  6 1990-02-05    34     0     34    34    34 No strata     
#>  7 1990-02-12    24     0     24    24    24 No strata     
#>  8 1990-02-19    17     0     17    17    17 No strata     
#>  9 1990-02-26    17     0     17    17    17 No strata     
#> 10 1990-03-05    16     0     16    16    16 No strata     
#> # ℹ 30 more rows
…
